<?xml version="1.0" encoding="UTF-8" standalone="no"?>
<!-- Created with Inkscape (http://www.inkscape.org/) -->

<svg
   xmlns:dc="http://purl.org/dc/elements/1.1/"
   xmlns:cc="http://creativecommons.org/ns#"
   xmlns:rdf="http://www.w3.org/1999/02/22-rdf-syntax-ns#"
   xmlns:svg="http://www.w3.org/2000/svg"
   xmlns="http://www.w3.org/2000/svg"
   xmlns:sodipodi="http://sodipodi.sourceforge.net/DTD/sodipodi-0.dtd"
   xmlns:inkscape="http://www.inkscape.org/namespaces/inkscape"
   width="53.089458mm"
   height="59.21529mm"
   viewBox="0 0 53.089458 59.21529"
   version="1.1"
   id="svg2076"
   inkscape:version="0.92.3 (2405546, 2018-03-11)"
   sodipodi:docname="brain_logo.svg">
  <defs
     id="defs2070" />
  <sodipodi:namedview
     id="base"
     pagecolor="#ffffff"
     bordercolor="#666666"
     borderopacity="1.0"
     inkscape:pageopacity="0.0"
     inkscape:pageshadow="2"
     inkscape:zoom="1.979899"
     inkscape:cx="35.985667"
     inkscape:cy="102.9754"
     inkscape:document-units="mm"
     inkscape:current-layer="layer1"
     showgrid="false"
     inkscape:window-width="1920"
     inkscape:window-height="1022"
     inkscape:window-x="0"
     inkscape:window-y="31"
     inkscape:window-maximized="1" />
  <metadata
     id="metadata2073">
    <rdf:RDF>
      <cc:Work
         rdf:about="">
        <dc:format>image/svg+xml</dc:format>
        <dc:type
           rdf:resource="http://purl.org/dc/dcmitype/StillImage" />
        <dc:title></dc:title>
      </cc:Work>
    </rdf:RDF>
  </metadata>
  <g
     inkscape:label="Layer 1"
     inkscape:groupmode="layer"
     id="layer1"
     transform="translate(-84.580267,-122.2495)">
    <path
       style="display:inline;fill:#00786e;fill-opacity:1;stroke-width:0.86532712"
       d="m 99.145453,180.71354 c -7.11797,-2.45951 -12.97761,-10.94387 -14.28924,-20.68979 -0.58956,-4.38088 -0.20122,-11.72622 0.84868,-16.05258 1.01124,-4.16698 4.90226,-12.17724 7.47866,-15.39598 4.61163,-5.76137 11.589407,-7.87666 16.496497,-5.00092 1.62415,0.95188 1.66447,0.95506 2.58462,0.21003 1.96042,-1.58745 5.45225,-1.98566 8.73864,-0.99662 4.74804,1.42892 9.09852,6.07902 12.65225,13.52361 2.54457,5.3305 3.66349,9.78685 3.95053,15.73373 0.51323,10.63365 -2.06562,18.34701 -8.18794,24.49022 -3.89567,3.90904 -8.30138,5.49205 -13.22833,4.75325 -1.39945,-0.20995 -2.2811,-0.67401 -3.52132,-1.85389 l -1.65447,-1.57384 -0.82288,1.04608 c -1.93158,2.45562 -6.8428,3.25891 -11.045697,1.8067 z m 7.744697,-1.03925 c 2.13009,-0.88999 3.78385,-3.9727 3.25711,-6.07148 -0.22554,-0.89854 -0.45979,-1.00722 -2.16025,-1.00194 -2.40466,0.009 -3.87635,0.73516 -4.08538,2.01992 l -0.16232,0.9978 -0.25851,-1.00576 c -0.14268,-0.5551 -0.61185,-1.07058 -1.04712,-1.15028 -1.13686,-0.20837 -2.19966,-1.26839 -2.19966,-2.19394 0,-0.71052 0.0918,-0.68154 0.83556,0.26408 0.90903,1.15564 2.13215,1.34594 3.79139,0.58998 1.24951,-0.5693 1.60135,-1.75314 1.23903,-4.16913 -0.1492,-0.99497 -0.17642,-1.80907 -0.0606,-1.80907 0.1941,0 0.58605,1.33096 1.21697,4.13238 0.1859,0.82542 0.49252,1.10866 1.20052,1.10866 1.67963,0 1.98025,-0.85711 1.66088,-4.73524 -0.161,-1.95487 -0.57034,-4.0062 -0.91756,-4.59828 -1.31741,-2.24612 -6.52831,-3.72668 -9.16783,-2.6048 -0.443457,0.18847 -0.125967,-0.16137 0.70552,-0.77749 0.83149,-0.61603 1.51181,-1.26839 1.51181,-1.4496 0,-0.55943 -1.73567,-1.45322 -3.384917,-1.74321 -2.5982,-0.45672 -4.05945,-1.6186 -5.33147,-4.23898 -0.75269,-1.55058 -0.84581,-1.65122 -3.31074,-3.57544 -2.79049,-2.17836 -4.50207,-0.97451 -4.50207,3.1665 0,1.38504 0.0763,1.48195 1.02335,1.30094 0.61609,-0.11777 1.27622,-0.68456 1.65869,-1.42427 0.59135,-1.1435 0.66517,-1.17528 1.06604,-0.45894 0.23689,0.4233 0.80579,1.09039 1.26415,1.48237 0.81979,0.70101 0.81417,0.70578 -0.34084,0.29241 -1.50462,-0.5386 -2.03382,-0.0268 -1.40335,1.35675 0.47649,1.04583 1.39252,1.80532 3.78711,3.14009 1.15955,0.6464 1.24928,0.63845 2.17469,-0.19157 l 0.96521,-0.86577 -0.69051,1.08009 c -0.94942,1.48508 -0.68888,3.49021 0.57424,4.41957 0.55435,0.40784 1.97535,0.92287 3.15777,1.14441 2.160207,0.40479 5.981317,1.88832 5.668757,2.20085 -0.0921,0.0921 -1.16324,-0.17633 -2.38043,-0.59644 -2.488957,-0.85912 -4.509327,-0.99202 -5.666307,-0.37279 -0.60588,0.32424 -0.77979,0.28572 -0.77979,-0.1728 0,-0.32459 -0.25263,-0.84275 -0.56138,-1.1515 -0.30875,-0.30875 -1.01668,-1.45991 -1.57322,-2.55817 -0.76635,-1.51232 -1.44206,-2.21161 -2.7851,-2.8824 -1.18407,-0.59128 -1.9987,-1.3583 -2.45178,-2.30843 -0.80414,-1.68637 -1.37358,-1.80222 -1.91097,-0.38871 -1.031,2.71168 0.0812,4.7272 2.63861,4.78172 1.40038,0.0294 1.40049,0.0303 1.40167,1.9713 0.003,2.92418 1.80658,5.76585 3.35068,5.2758 0.51591,-0.16372 0.6889,-0.0963 0.50717,0.19781 -0.15175,0.2455 -0.70948,0.44633 -1.23945,0.44633 -1.32292,0 -3.03515,-2.33637 -3.31272,-4.52029 -0.26339,-2.07245 -0.60898,-2.57167 -2.02649,-2.92738 -1.3573,-0.3407 -2.04901,0.501 -1.80089,2.19143 0.20134,1.37179 0.69806,1.51909 2.0143,0.59715 1.18059,-0.82691 1.1357,-0.47887 -0.11188,0.86724 -0.55432,0.5982 -1.00388,1.46925 -0.99901,1.93574 0.0119,1.14404 1.31398,3.93939 2.16166,4.64091 1.11409,0.92211 1.57601,0.0155 0.86236,-1.69257 -0.88654,-2.12177 -0.74286,-2.35413 0.30139,-0.48745 0.57022,1.01927 1.51421,1.92207 2.56589,2.45389 1.39051,0.70319 1.59819,0.95854 1.2645,1.55482 -0.30061,0.53721 -0.17996,1.01002 0.48846,1.91412 l 0.88771,1.20063 -0.8581,-0.45921 c -0.47194,-0.25259 -0.96543,-0.99601 -1.09663,-1.65201 -0.16252,-0.81255 -0.54323,-1.26927 -1.1941,-1.43262 -1.45726,-0.3657 -2.28552,0.0813 -1.807,0.97564 0.68946,1.28821 4.65192,4.91629 5.37092,4.91747 1.41225,0 2.02914,-2.80771 0.93412,-4.25549 -0.74468,-0.98456 -0.75532,-3.63186 -0.0209,-5.21724 0.52889,-1.14187 0.55605,-1.15313 0.48577,-0.20162 -0.066,0.89312 0.0633,0.99297 1.13499,0.877 0.6652,-0.0718 1.935117,-0.58304 2.822057,-1.13563 l 1.61261,-1.00491 -1.51831,1.44949 c -0.83506,0.79717 -2.055577,1.55691 -2.712227,1.68817 -2.27465,0.455 -2.27384,1.01044 0.007,4.99624 1.20658,2.10854 2.497237,3.8527 3.030857,4.09578 1.29885,0.59179 3.56469,0.0761 5.01068,-1.14077 0.67172,-0.56524 1.22132,-0.8327 1.22132,-0.59439 0,0.73976 -2.93751,2.41156 -4.73702,2.69593 -1.69559,0.26788 -2.1845,0.71664 -1.20946,1.11012 1.02359,0.413 3.59415,0.24999 4.94274,-0.31352 z m 15.53722,-0.0346 c 1.32247,-0.68388 1.56788,-1.39734 0.48391,-1.40685 -0.47916,0 -0.55028,-0.10487 -0.22166,-0.31378 0.26614,-0.16908 0.67268,-0.75593 0.90344,-1.30403 0.32507,-0.77213 0.39996,-0.81497 0.33249,-0.19022 -0.11191,1.03657 0.38112,1.81426 1.15021,1.81426 0.64478,0 4.99146,-3.91275 4.99146,-4.49314 0,-0.76113 -2.11606,-0.28104 -3.10052,0.70344 -0.73587,0.73578 -0.94918,0.82595 -0.71603,0.30234 0.58522,-1.31417 0.0561,-5.33084 -0.7746,-5.87982 -0.24653,-0.16284 -1.23661,-0.29887 -2.20017,-0.30234 -1.99312,-0.009 -3.48436,0.87364 -5.7572,3.39979 -1.33827,1.48731 -1.63366,1.62509 -3.49355,1.62915 -2.39188,0.009 -2.62884,0.16838 -2.27722,1.56936 0.21554,0.85883 0.50087,1.05517 1.53142,1.05387 0.69662,0 1.85615,-0.36093 2.57679,-0.80032 1.42274,-0.86741 1.56464,-0.804 0.83055,0.37149 -0.76933,1.23187 0.22835,2.1183 2.04734,1.81909 1.08915,-0.17921 1.30362,-0.13197 0.85125,0.18759 -0.98007,0.69226 -2.90513,0.50196 -3.84392,-0.37995 -0.71439,-0.67116 -1.06568,-0.74592 -1.94094,-0.41312 -0.58779,0.22343 -1.06871,0.5641 -1.06871,0.75689 0,0.51046 1.27268,1.58087 2.4272,2.04148 1.57504,0.6284 5.925,0.52959 7.26846,-0.16518 z m -1.72233,-4.44718 c 1.14354,-0.80094 1.13961,-1.54928 -0.011,-2.11037 -0.8053,-0.39268 -0.76018,-0.41656 0.40215,-0.21293 0.77954,0.13645 1.5543,0.0259 1.91497,-0.27345 0.37349,-0.30996 0.60573,-0.34016 0.60573,-0.0788 0,0.63568 -2.63412,3.30333 -3.26172,3.30333 -0.30942,0 -0.15774,-0.27198 0.34998,-0.62764 z m -20.37013,4.02065 c 0.18861,-0.18855 -0.924057,-2.52597 -1.612317,-3.38706 -0.17516,-0.21908 -1.69082,1.64575 -1.70482,2.09765 -0.0103,0.33677 2.00257,1.48488 2.64513,1.50859 0.24021,0.009 0.542607,-0.0897 0.672007,-0.21918 z m 16.80048,-7.85873 c 1.39377,-1.39378 1.52182,-2.24855 0.61733,-4.12129 l -0.62308,-1.29021 1.33369,1.51788 1.33369,1.51796 0.83024,-0.83018 c 0.75005,-0.7501 1.0189,-0.788 2.78452,-0.39226 2.11467,0.47385 3.91279,0.2543 5.3452,-0.65281 1.25884,-0.79723 1.13731,-0.51348 -0.50394,1.1765 -1.51485,1.55975 -1.82041,3.0701 -0.7935,3.92235 0.7368,0.61143 3.10601,0.0104 4.43428,-1.12502 0.94976,-0.81184 2.20492,-2.53896 2.20492,-3.034 0,-0.64008 -1.81267,0.20932 -2.71572,1.27273 l -0.90152,1.0615 0.60563,-1.26399 c 0.3331,-0.6952 1.13812,-1.48455 1.78896,-1.75418 1.21242,-0.50216 2.15686,-1.64804 2.84048,-3.44602 0.33404,-0.87856 0.24988,-1.07888 -0.61963,-1.47503 -0.847,-0.38591 -1.14905,-0.32786 -1.90929,0.36725 -1.40858,1.28778 -3.35774,2.13338 -4.81379,2.08814 l -1.33027,-0.0415 1.31604,-0.31223 c 1.91614,-0.45446 4.40883,-2.23384 5.15744,-3.68136 0.79224,-1.53204 0.30437,-2.28264 -1.0222,-1.57271 -0.48623,0.26018 -0.97614,0.38117 -1.0886,0.26859 -0.1125,-0.11249 0.34557,-0.48892 1.01794,-0.83659 0.67233,-0.3477 1.48166,-1.00232 1.7985,-1.45463 0.52668,-0.75196 0.572,-0.62597 0.52843,1.46846 -0.0528,2.5354 0.67513,3.37693 1.36087,1.57324 0.47369,-1.2459 0.53284,-5.43114 0.0867,-6.13291 -0.16862,-0.26532 -0.86562,-0.58073 -1.54888,-0.7011 -1.14137,-0.20108 -1.34478,-0.0536 -2.50321,1.80941 -0.9052,1.45619 -1.74597,2.24449 -2.98039,2.7944 -1.46502,0.65264 -1.84153,1.08209 -2.5443,2.90215 l -0.82485,2.13622 -4.01297,0.72246 c -5.42561,0.97669 -7.93467,1.24381 -6.73427,0.71693 0.93515,-0.41052 1.17446,-1.01764 0.5526,-1.40191 -0.19496,-0.12054 -0.45307,-0.59614 -0.57361,-1.05701 -0.20182,-0.77179 -0.14706,-0.76011 0.69472,0.14814 0.50258,0.54232 1.29892,1.10823 1.76965,1.25767 1.13027,0.35876 5.2001,-0.41095 6.42832,-1.21579 1.08857,-0.7132 2.11419,-2.84336 2.11419,-4.39118 0,-1.04349 0.60998,-1.40814 0.90006,-0.53797 0.12295,0.36889 0.46413,0.35721 1.44619,-0.0493 1.67552,-0.69398 3.70025,-3.45369 3.70367,-5.04814 0.004,-0.67693 0.36312,-1.77503 0.80365,-2.44023 1.03949,-1.56961 1.01539,-2.64911 -0.0905,-4.055 -0.6601,-0.83919 -0.72628,-1.07473 -0.25069,-0.89216 0.35535,0.13629 0.8271,0.0666 1.04832,-0.15429 0.2675,-0.26755 0.33826,-0.0675 0.21122,0.59673 -0.19496,1.02006 1.01997,2.69057 1.95679,2.69057 0.57571,0 0.25441,-2.67335 -0.51515,-4.28648 -0.4426,-0.92781 -0.85511,-1.1811 -2.08862,-1.28293 -2.10561,-0.17368 -2.69028,0.43386 -2.69028,2.79553 0,1.67967 -0.205,2.19213 -1.41103,3.52707 -0.77605,0.859 -1.41103,1.6976 -1.41103,1.86337 0,0.16589 -0.63843,1.35252 -1.41873,2.63709 -1.20875,1.98983 -1.74278,2.46984 -3.6075,3.24265 -1.86259,0.77204 -2.13177,1.01365 -1.80644,1.62145 0.74332,1.38893 0.3678,1.71066 -0.74847,0.64121 -1.43403,-1.37397 -2.30229,-1.3628 -4.54317,0.058 -4.19177,2.65839 -5.04245,5.2169 -2.57478,7.74398 l 1.42693,1.46129 -1.18165,-0.1734 c -1.14579,-0.16815 -1.18617,-0.11658 -1.33069,1.70062 -0.20381,2.56257 0.1539,3.04241 2.26797,3.04241 1.43128,0 1.99659,-0.23348 3.00361,-1.24045 z m -6.96301,-21.98113 c 0.0336,-5.34374 -0.0841,-9.95099 -0.26169,-10.23829 -0.57761,-0.93455 -1.5195,-0.10157 -2.36054,2.08743 -0.96156,2.50289 -1.13811,1.75904 -0.26533,-1.11791 0.3302,-1.0885 0.60808,-2.43261 0.61753,-2.98693 0.0158,-0.92902 0.0595,-0.95213 0.55786,-0.29534 0.32181,0.42401 0.80624,0.61059 1.19665,0.46078 0.54926,-0.21079 0.65594,-0.95298 0.65594,-4.5626 0,-2.81534 -0.16783,-4.47875 -0.48377,-4.7947 -0.62186,-0.62182 -2.03895,-0.62182 -2.66081,0 -0.36002,0.36009 -0.48378,0.3637 -0.48378,0.0138 0,-0.59397 1.30286,-1.30432 2.3924,-1.30432 1.01752,0 1.08403,-0.87466 0.1273,-1.67369 -2.09858,-1.75274 -5.32028,-2.06883 -6.56876,-0.64443 -2.37598,2.711 -2.812477,3.12262 -3.290127,3.10332 -0.28724,-0.0113 -0.11408,-0.30587 0.38483,-0.65391 1.603377,-1.11845 0.915637,-2.59503 -0.79798,-1.71317 -1.50053,0.77204 -3.13274,2.48623 -3.13274,3.28997 0,0.97237 1.11591,3.12979 1.61882,3.12979 0.21377,0 1.67244,-0.82285 3.241467,-1.8286 2.05281,-1.31583 3.01638,-2.22019 3.43631,-3.22518 0.50581,-1.21059 0.75737,-1.38859 1.88838,-1.33624 1.07703,0.0502 1.12889,0.0892 0.29695,0.22569 -1.31111,0.21503 -2.9451,3.60339 -2.3127,4.79572 0.33339,0.62848 0.30987,0.67454 -0.13272,0.25996 -0.89983,-0.843 -1.82363,-0.58722 -5.302887,1.46846 -3.8102,2.25123 -4.64321,3.03998 -4.97792,4.7137 -0.18432,0.92157 -0.008,1.43947 0.78224,2.29164 1.26832,1.3685 0.58231,1.46733 -0.77359,0.11145 -1.27542,-1.27542 -1.29154,-3.02934 -0.0396,-4.29723 1.23612,-1.25176 2.12651,-3.89249 1.51775,-4.50124 -0.60315,-0.60314 -2.18766,0.92718 -3.65513,3.53026 -1.62554,2.88346 -1.78528,3.65543 -1.05806,5.11313 0.34806,0.69771 0.63281,1.92597 0.63281,2.72951 0,0.80346 0.2824,1.86417 0.62759,2.35698 0.34517,0.49279 0.46399,0.89597 0.26406,0.89597 -0.726,0 -1.63583,-1.44743 -1.90062,-3.02364 -0.61224,-3.64467 -1.19359,-3.92173 -2.07097,-0.98707 -0.97747,3.26937 -0.8195,3.72073 1.95366,5.58292 1.37614,0.92408 2.78214,1.62673 3.12443,1.56148 0.36235,-0.0692 1.04339,-1.29566 1.63022,-2.93641 0.91699,-2.56371 1.01926,-2.69966 1.13421,-1.50758 0.11978,1.24237 0.21122,1.3103 1.76276,1.3103 1.27219,0 1.5424,0.11326 1.21395,0.50908 -0.23238,0.27999 -0.4962,1.23238 -0.58631,2.11649 l -0.16385,1.60751 -0.0678,-1.71342 c -0.064,-1.61643 -0.13555,-1.71335 -1.26686,-1.71335 -2.27238,0 -3.28007,4.04583 -1.50807,6.05494 1.12276,1.27299 3.66603,2.50382 4.82807,2.33646 0.802917,-0.11551 0.882257,-0.36291 0.892027,-2.78062 0.01,-2.42872 0.1254,-2.78446 1.36265,-4.19382 1.19243,-1.35831 1.32234,-1.72503 1.10109,-3.10868 -0.45047,-2.81709 -1.2956,-3.53184 -4.190227,-3.54378 -0.78556,0 -1.23158,-0.17125 -1.08486,-0.4086 0.13704,-0.22177 0.91876,-0.40584 1.73719,-0.40914 0.818407,0 1.929287,-0.22998 2.468577,-0.50396 1.38439,-0.70299 3.36193,-4.2061 3.15816,-5.59441 -0.20406,-1.39034 0.32949,-1.13654 0.60144,0.28606 0.13984,0.73163 -0.21954,1.73586 -1.19246,3.33194 -1.29844,2.13027 -1.37287,2.43468 -1.10048,4.50204 0.43512,3.30217 0.30798,4.26277 -0.81849,6.18501 -1.68114,2.86865 -1.14972,7.45617 1.05445,9.10246 1.81299,1.35416 4.214,2.44309 5.17827,2.34851 l 1.00788,-0.0988 0.0612,-9.71598 z m -2.83238,5.30239 c -0.36474,-0.55665 -1.25106,-1.32819 -1.96961,-1.71447 -1.20974,-0.65038 -1.23934,-0.71278 -0.40002,-0.84266 0.544,-0.0839 0.97814,-0.49177 1.0858,-1.01944 0.83633,-4.09914 0.94673,-4.20686 0.98976,-0.96571 0.0287,2.16859 0.24543,3.44963 0.701,4.14483 0.36264,0.55346 0.56863,1.09697 0.45778,1.20791 -0.11088,0.11086 -0.5,-0.25389 -0.86471,-0.81046 z m -9.323307,-18.3644 c -1.14801,-0.29212 -1.15714,-0.31013 -0.17987,-0.35548 0.60379,-0.0277 1.59519,-0.63116 2.397197,-1.45867 0.75218,-0.77603 1.54739,-1.41103 1.76713,-1.41103 0.21969,0 -0.088,0.50882 -0.68381,1.13073 -0.59583,0.62185 -1.08332,1.43826 -1.08332,1.81418 0,0.72816 -0.305367,0.76685 -2.217327,0.28027 z m 16.118217,21.55625 c 1.57087,-1.00491 2.22516,-1.67925 2.22516,-2.29339 v -0.8699 l 0.77664,0.83357 c 0.66829,0.71736 1.01975,0.78667 2.5197,0.49677 0.95868,-0.18533 1.96354,-0.34482 2.23296,-0.35453 0.8633,-0.0311 3.44121,-2.58004 4.027,-3.98204 0.5133,-1.22851 0.49811,-1.40885 -0.16084,-1.9085 -0.66504,-0.50421 -0.66858,-0.55284 -0.0412,-0.56453 1.12235,-0.0209 2.54395,-0.81618 3.13745,-1.75488 0.30541,-0.4832 0.67237,-2.47069 0.81541,-4.41672 0.14303,-1.94604 0.43463,-3.71275 0.64794,-3.92605 0.24834,-0.24836 0.38225,-0.009 0.37232,0.66508 -0.0194,1.32142 0.93763,1.96212 2.38749,1.59834 1.00578,-0.25251 1.09168,-0.40869 0.86404,-1.57127 -0.29149,-1.4887 -1.48273,-3.25657 -2.30193,-3.41605 -0.30911,-0.0606 -1.51443,0.72497 -2.67854,1.74467 -2.00902,1.75991 -2.11654,1.95365 -2.11654,3.8148 0,2.38398 -0.56722,2.9692 -0.69901,0.72116 -0.1698,-2.89676 -4.12981,-11.31632 -6.50866,-13.8384 -1.54821,-1.64135 -2.91695,-2.0123 -4.46718,-1.21068 -1.83041,0.94649 -1.98321,0.72673 -0.29314,-0.42175 1.22667,-0.83357 1.4715,-1.20627 1.2577,-1.91496 -0.43372,-1.43784 -0.7794,-1.55889 -2.49414,-0.87277 -1.32167,0.52888 -1.67595,0.89786 -1.8587,1.93573 -0.12417,0.70524 -0.0906,1.9173 0.0747,2.69333 0.25864,1.21466 0.54026,1.48751 2.0234,1.96049 1.57832,0.50328 1.77119,0.48641 2.29748,-0.20162 0.52691,-0.68871 0.55516,-0.647 0.34084,0.50345 -0.3381,1.81492 0.78782,3.74512 2.60007,4.45728 1.3255,0.52084 1.61389,0.92114 2.79833,3.8849 1.44782,3.62277 1.61614,5.35325 0.69422,7.13607 -0.43085,0.83324 -1.01278,1.24774 -2.01576,1.43595 -1.65337,0.31014 -1.7867,0.99105 -0.4454,2.27494 0.53052,0.50794 1.09987,1.37699 1.26515,1.93133 0.25676,0.86109 0.0869,0.77298 -1.1663,-0.60469 l -1.46679,-1.61264 -0.70545,0.8636 c -0.38796,0.47489 -1.28402,1.15417 -1.99118,1.50949 -0.70719,0.35529 -1.56891,1.05015 -1.91497,1.54426 -0.39134,0.55866 -0.6292,0.6816 -0.6292,0.32518 0,-0.31525 0.89621,-1.41447 1.99156,-2.44289 1.09538,-1.02836 2.11325,-2.35449 2.26194,-2.94688 0.25676,-1.023 0.64011,-1.23752 2.79151,-1.56193 0.43789,-0.0658 1.02485,-0.57198 1.30431,-1.1244 1.36533,-2.69853 -0.23479,-7.65641 -3.04325,-9.42939 -0.8836,-0.55778 -2.02881,-1.76544 -2.54491,-2.68362 -0.91176,-1.62232 -2.48535,-2.79995 -3.74134,-2.79995 -0.84852,0 -1.19771,1.69189 -0.81624,3.95472 0.17535,1.04005 0.27199,4.30172 0.21477,7.24814 -0.11533,5.93728 0.0787,6.53184 2.13496,6.54197 0.96234,0.009 1.1177,0.0987 0.65614,0.39692 -0.33259,0.21505 -1.08422,0.39364 -1.67028,0.39703 -0.58601,0 -1.15781,0.24669 -1.2706,0.54065 -0.71213,1.8557 -0.76905,8.73797 -0.0723,8.73797 0.0965,0 1.17678,-0.6405 2.40063,-1.42336 z m 1.10456,-13.8314 c 0.90929,-0.7651 1.1206,-1.27384 1.1206,-2.69748 0,-0.965 -0.18142,-1.86667 -0.40314,-2.00375 -0.22174,-0.13699 -0.39713,-0.46519 -0.38974,-0.72929 0.008,-0.2641 0.37022,-0.0519 0.8063,0.47159 0.54445,0.6536 0.79288,1.55398 0.79288,2.87367 0,1.4953 0.18494,2.04476 0.83305,2.47501 0.75399,0.50069 0.60944,0.55321 -1.52375,0.55321 h -2.3568 z m 21.43669,7.82447 c 0.68701,-2.7371 -2.17408,-4.44856 -2.91104,-1.7414 -0.26847,0.98615 -0.20599,1.48475 0.25251,2.01581 0.91276,1.05697 2.36191,0.90745 2.65853,-0.27441 z m -8.47963,-14.4918 c 0.84027,-0.35114 1.58072,-1.08642 2.01454,-2.00065 0.60547,-1.27601 0.61972,-1.60093 0.12143,-2.77085 -1.30947,-3.07442 -4.33188,-4.23483 -3.69855,-1.42 0.6902,3.0675 0.62024,3.19261 -0.50052,0.89535 -0.70925,-1.45376 -1.78641,-2.88474 -2.69037,-3.57424 -0.83488,-0.6368 -1.84321,-1.93296 -2.25978,-2.90471 -0.51642,-1.20472 -1.06435,-1.83312 -1.74793,-2.00471 -2.73901,-0.68752 -3.55515,1.10007 -1.39026,3.04506 3.3906,3.04631 4.51584,4.43117 5.7382,7.06247 1.16211,2.50165 2.3455,4.22738 2.89888,4.22738 0.10218,0 0.78363,-0.24982 1.51436,-0.5551 z m -1.13723,-8.74285 c 0.45911,-0.74278 -2.21447,-3.17842 -4.14802,-3.7787 -1.47388,-0.45768 -1.15285,1.25984 0.53265,2.84943 1.42074,1.33996 3.09552,1.77046 3.61537,0.92927 z"
       id="path5111"
       inkscape:connector-curvature="0"
       sodipodi:nodetypes="ssssssssssssccsccscccsssccscsscssssssssscccssscccsccssscscsccscsssscsscccscscscssccscsscssccsssscccsccccscsssssscssssscssccccscsscccsccccccccssssscsccssscsscsscccssccsssscscccccsscscsssccsssssssscssscsssccccsscccssssssscsssssssscssccsssscscsssssssscsccsssccsccccsccssssccccsscccccscsscsssscsscssscsccssssssssscsscscssssscsscccsscsssscscsscccsssssccssscscccccsssscssssscssss"
       inkscape:export-filename="/home/anna/GitLab_Repositories/atrimborn/themes/beautifulhugo/static/img/Brain_website.png"
       inkscape:export-xdpi="122.48006"
       inkscape:export-ydpi="122.48006" />
  </g>
</svg>
