<?xml version="1.0" encoding="UTF-8" standalone="no"?>
<!-- Created with Inkscape (http://www.inkscape.org/) -->

<svg
   xmlns:dc="http://purl.org/dc/elements/1.1/"
   xmlns:cc="http://creativecommons.org/ns#"
   xmlns:rdf="http://www.w3.org/1999/02/22-rdf-syntax-ns#"
   xmlns:svg="http://www.w3.org/2000/svg"
   xmlns="http://www.w3.org/2000/svg"
   xmlns:sodipodi="http://sodipodi.sourceforge.net/DTD/sodipodi-0.dtd"
   xmlns:inkscape="http://www.inkscape.org/namespaces/inkscape"
   width="210mm"
   height="297mm"
   viewBox="0 0 210 297"
   version="1.1"
   id="svg8"
   inkscape:version="0.92.3 (2405546, 2018-03-11)"
   sodipodi:docname="VisionScienceArt.svg">
  <defs
     id="defs2" />
  <sodipodi:namedview
     id="base"
     pagecolor="#ffffff"
     bordercolor="#666666"
     borderopacity="1.0"
     inkscape:pageopacity="0.0"
     inkscape:pageshadow="2"
     inkscape:zoom="1.4"
     inkscape:cx="360.76858"
     inkscape:cy="775.10091"
     inkscape:document-units="mm"
     inkscape:current-layer="layer1"
     showgrid="false"
     inkscape:window-width="1920"
     inkscape:window-height="1022"
     inkscape:window-x="0"
     inkscape:window-y="31"
     inkscape:window-maximized="1" />
  <metadata
     id="metadata5">
    <rdf:RDF>
      <cc:Work
         rdf:about="">
        <dc:format>image/svg+xml</dc:format>
        <dc:type
           rdf:resource="http://purl.org/dc/dcmitype/StillImage" />
        <dc:title></dc:title>
      </cc:Work>
    </rdf:RDF>
  </metadata>
  <g
     inkscape:label="Layer 1"
     inkscape:groupmode="layer"
     id="layer1">
    <rect
       style="opacity:0.228;fill:#80ffe6;fill-opacity:1;stroke:none;stroke-width:0.33208996;stroke-miterlimit:4;stroke-dasharray:none;stroke-dashoffset:0;stroke-opacity:1;paint-order:markers fill stroke"
       id="rect815"
       width="46.869049"
       height="34.017857"
       x="115.47173"
       y="70.970238" />
    <rect
       y="22.967257"
       x="71.777672"
       height="34.017857"
       width="43.65625"
       id="rect819"
       style="opacity:0.228;fill:#80ffe6;fill-opacity:1;stroke:none;stroke-width:0.32050583;stroke-miterlimit:4;stroke-dasharray:none;stroke-dashoffset:0;stroke-opacity:1;paint-order:markers fill stroke" />
    <flowRoot
       xml:space="preserve"
       id="flowRoot821"
       style="font-style:normal;font-weight:normal;font-size:48px;line-height:1;font-family:sans-serif;letter-spacing:0px;word-spacing:0px;fill:#000000;fill-opacity:1;stroke:none"
       transform="matrix(0.26458333,0,0,0.26458333,94.116069,-1.1339282)"><flowRegion
         id="flowRegion823"
         style="font-size:48px;line-height:1"><rect
           id="rect825"
           width="262.85715"
           height="149.28571"
           x="87.14286"
           y="285.37683"
           style="font-size:48px;line-height:1" /></flowRegion><flowPara
         id="flowPara827">Virtual Reality</flowPara></flowRoot>    <flowRoot
       transform="matrix(0.26458333,0,0,0.26458333,61.799107,-41.388394)"
       style="font-style:normal;font-weight:normal;font-size:48px;line-height:1;font-family:sans-serif;letter-spacing:0px;word-spacing:0px;fill:#000000;fill-opacity:1;stroke:none"
       id="flowRoot835"
       xml:space="preserve"><flowRegion
         style="font-size:48px;line-height:1"
         id="flowRegion831"><rect
           style="font-size:48px;line-height:1"
           y="285.37683"
           x="87.14286"
           height="149.28571"
           width="262.85715"
           id="rect829" /></flowRegion><flowPara
         id="flowPara833">Art</flowPara></flowRoot>    <rect
       style="opacity:0.228;fill:#80ffe6;fill-opacity:1;stroke:none;stroke-width:0.36034736;stroke-miterlimit:4;stroke-dasharray:none;stroke-dashoffset:0;stroke-opacity:1;paint-order:markers fill stroke"
       id="rect837"
       width="55.184525"
       height="34.017857"
       x="13.758332"
       y="69.836311" />
    <flowRoot
       xml:space="preserve"
       id="flowRoot845"
       style="font-style:normal;font-weight:normal;font-size:48px;line-height:1;font-family:sans-serif;letter-spacing:0px;word-spacing:0px;fill:#000000;fill-opacity:1;stroke:none"
       transform="matrix(0.26458333,0,0,0.26458333,-6.4255948,-0.75595215)"><flowRegion
         id="flowRegion841"
         style="font-size:48px;line-height:1"><rect
           id="rect839"
           width="262.85715"
           height="149.28571"
           x="87.14286"
           y="285.37683"
           style="font-size:48px;line-height:1" /></flowRegion><flowPara
         id="flowPara843">(Vision) </flowPara><flowPara
         id="flowPara847">Science</flowPara></flowRoot>    <flowRoot
       xml:space="preserve"
       id="flowRoot849"
       style="font-style:normal;font-weight:normal;font-size:29.33333397px;line-height:1;font-family:sans-serif;letter-spacing:0px;word-spacing:0px;fill:#000000;fill-opacity:1;stroke:none"
       transform="matrix(0.26458333,0,0,0.26458333,87.501488,-83.721726)"><flowRegion
         id="flowRegion851"
         style="font-size:29.33333397px;line-height:1"><rect
           id="rect853"
           width="187.14285"
           height="155.71429"
           x="128.57143"
           y="454.66254"
           style="font-size:29.33333397px;line-height:1" /></flowRegion><flowPara
         id="flowPara855">uses VR</flowPara></flowRoot>    <flowRoot
       transform="matrix(0.26458333,0,0,0.26458333,95.061012,-65.011905)"
       style="font-style:normal;font-weight:normal;font-size:29.33333397px;line-height:1;font-family:sans-serif;letter-spacing:0px;word-spacing:0px;fill:#000000;fill-opacity:1;stroke:none"
       id="flowRoot863"
       xml:space="preserve"><flowRegion
         style="font-size:29.33333397px;line-height:1"
         id="flowRegion859"><rect
           style="font-size:29.33333397px;line-height:1"
           y="454.66254"
           x="128.57143"
           height="155.71429"
           width="187.14285"
           id="rect857" /></flowRegion><flowPara
         id="flowPara861">uses Art</flowPara></flowRoot>    <flowRoot
       transform="matrix(0.26458333,0,0,0.26458333,6.4255948,-70.114584)"
       style="font-style:normal;font-weight:normal;font-size:29.33333397px;line-height:1;font-family:sans-serif;letter-spacing:0px;word-spacing:0px;fill:#000000;fill-opacity:1;stroke:none"
       id="flowRoot871"
       xml:space="preserve"><flowRegion
         style="font-size:29.33333397px;line-height:1"
         id="flowRegion867"><rect
           style="font-size:29.33333397px;line-height:1"
           y="454.66254"
           x="128.57143"
           height="155.71429"
           width="187.14285"
           id="rect865" /></flowRegion><flowPara
         id="flowPara877">uses vision science</flowPara></flowRoot>    <flowRoot
       xml:space="preserve"
       id="flowRoot891"
       style="font-style:normal;font-weight:normal;font-size:29.33333397px;line-height:1;font-family:sans-serif;letter-spacing:0px;word-spacing:0px;fill:#000000;fill-opacity:1;stroke:none"
       transform="matrix(0.26458333,0,0,0.26458333,-19.087798,-82.965774)"><flowRegion
         id="flowRegion887"
         style="font-size:29.33333397px;line-height:1"><rect
           id="rect885"
           width="187.14285"
           height="155.71429"
           x="128.57143"
           y="454.66254"
           style="font-size:29.33333397px;line-height:1" /></flowRegion><flowPara
         id="flowPara889">uses Art</flowPara></flowRoot>  </g>
</svg>
